^C:\USERS\EDUARDO SANCHEZ\DOCUMENTS\VISUAL STUDIO 2012\PROJECTS\PROYECTO ALGORITMOS\PROYECTO ALGORITMOS\SOURCE.CPP
C:\USERS\EDUARDO SANCHEZ\DOCUMENTS\VISUAL STUDIO 2012\PROJECTS\PROYECTO ALGORITMOS\PROYECTO ALGORITMOS\DEBUG\SOURCE.OBJ
C:\USERS\EDUARDO SANCHEZ\DOCUMENTS\VISUAL STUDIO 2012\PROJECTS\PROYECTO ALGORITMOS\PROYECTO ALGORITMOS\DEBUG\VC110.PDB
